2010-07-21 08:08:49 /Index.aspx?UserName=yangzj&AuID=856c9b03-737c-4ecb-9b5b-c3c072334dc3 错误号：2
2011-05-13 16:01:46 /index.aspx?target=1&UserName=ID2&AuID=15ea2774-b7bc-434a-a394-2d37e1971503 错误号：2
2011-09-21 14:22:31 /Index.aspx?UserName=niteng&AuID=69ff87d9-10ec-4050-b90a-a750cda492a7 错误号：2
2011-09-24 10:17:19 /Index.aspx?UserName=niteng&AuID=8ae4f374-b435-46b1-b79a-eccb41ae17eb 错误号：2
2012-08-09 22:36:33 /Index.aspx?UserName=lixj&AuID=207a60c8-3c39-4aab-8041-b728152ec1eb 错误号：2
